{
"instructions_readme": "1) Open Chrome, 2) go to chrome://tracing, 3) click Load, 4) navigate to this file.",
"traceEvents":[
{ "cat":"", "pid":1, "tid":0, "ts":0, "ph":"M", "name":"process_name", "args": { "name":"tundra" } }
,{ "pid":1, "tid":0, "ts":239741571738, "dur":1150, "ph":"X", "name": "DriverCheckDagSignatures",  "args": { "durationMS":1, "detail":"" }}
,{ "pid":1, "tid":0, "ts":239741572888, "dur":750, "ph":"X", "name": "DriverInitData",  "args": { "durationMS":1, "detail":"" }}
,{ "pid":1, "tid":0, "ts":239741573729, "dur":1, "ph":"X", "name": "Tundra",  "args": { "durationMS":0, "detail":"RemoveStaleOutputs" }}
,{ "pid":1, "tid":0, "ts":239741573740, "dur":0, "ph":"X", "name": "Tundra",  "args": { "durationMS":0, "detail":"PrepareNodes" }}
,{ "pid":1, "tid":0, "ts":239741573741, "dur":372, "ph":"X", "name": "Tundra",  "args": { "durationMS":0, "detail":"BuildQueueInit" }}
,{ "pid":1, "tid":0, "ts":239877662754, "dur":13342, "ph":"X", "name": "JoinBuildThread",  "args": { "durationMS":13, "detail":"" }}
,{ "pid":1, "tid":0, "ts":239877676109, "dur":5, "ph":"X", "name": "JoinBuildThread",  "args": { "durationMS":0, "detail":"" }}
,{ "pid":1, "tid":0, "ts":239877676120, "dur":3, "ph":"X", "name": "JoinBuildThread",  "args": { "durationMS":0, "detail":"" }}
,{ "pid":1, "tid":0, "ts":239877676130, "dur":2, "ph":"X", "name": "JoinBuildThread",  "args": { "durationMS":0, "detail":"" }}
,{ "pid":1, "tid":0, "ts":239877676139, "dur":0, "ph":"X", "name": "SharedResourceDestroy",  "args": { "durationMS":0, "detail":"" }}
,{ "pid":1, "tid":0, "ts":239877676146, "dur":1542, "ph":"X", "name": "Tundra",  "args": { "durationMS":2, "detail":"Write AllBuiltNodes" }}
,{ "pid":1, "tid":1, "ts":239741574432, "dur":13, "ph":"X", "name": "CheckInputSignature",  "args": { "durationMS":0, "detail":"WriteResponseFile artifacts/rsp/3559567297350591675.rsp" }}
,{ "pid":1, "tid":1, "ts":239741574783, "dur":372, "ph":"X", "name": "WriteResponseFile",  "args": { "durationMS":0, "detail":"artifacts/rsp/3559567297350591675.rsp" }}
,{ "pid":1, "tid":1, "ts":239741575157, "dur":165591, "ph":"X", "name": "CheckInputSignature",  "args": { "durationMS":166, "detail":"Il2Cpp C:/Users/Nguyen Thuan/Desktop/ex/performance/Test_sprite/test_performance_sprite/Library/Il2cppBuildCache/WebGL/Native/build.bc" }}
,{ "pid":1, "tid":1, "ts":239741741768, "dur":135920938, "ph":"X", "name": "Il2Cpp",  "args": { "durationMS":135921, "detail":"C:/Users/Nguyen Thuan/Desktop/ex/performance/Test_sprite/test_performance_sprite/Library/Il2cppBuildCache/WebGL/Native/build.bc" }}
,{ "pid":1, "tid":1, "ts":239877662712, "dur":2, "ph":"X", "name": "CheckInputSignature",  "args": { "durationMS":0, "detail":"all_tundra_nodes" }}
,{ "pid":1, "tid":1, "ts":239877662752, "dur":35, "ph":"X", "name": "WaitingForWork", "cname":"thread_state_sleeping",  "args": { "durationMS":0, "detail":"" }}
,{ "pid":1, "tid":1, "ts":239877662786, "dur":13171, "ph":"X", "name": "Exiting",  "args": { "durationMS":13, "detail":"BuildLoop" }}
,{ "pid":1, "tid":2, "ts":239741574431, "dur":136088354, "ph":"X", "name": "WaitingForWork", "cname":"thread_state_sleeping",  "args": { "durationMS":136088, "detail":"" }}
,{ "pid":1, "tid":2, "ts":239877662786, "dur":12926, "ph":"X", "name": "Exiting",  "args": { "durationMS":13, "detail":"BuildLoop" }}
,{ "pid":1, "tid":3, "ts":239741574435, "dur":136088346, "ph":"X", "name": "WaitingForWork", "cname":"thread_state_sleeping",  "args": { "durationMS":136088, "detail":"" }}
,{ "pid":1, "tid":3, "ts":239877662783, "dur":13043, "ph":"X", "name": "Exiting",  "args": { "durationMS":13, "detail":"BuildLoop" }}
,{ "pid":1, "tid":4, "ts":239741574440, "dur":136088329, "ph":"X", "name": "WaitingForWork", "cname":"thread_state_sleeping",  "args": { "durationMS":136088, "detail":"" }}
,{ "pid":1, "tid":4, "ts":239877662769, "dur":13087, "ph":"X", "name": "Exiting",  "args": { "durationMS":13, "detail":"BuildLoop" }}

]
}
