{"msg":"init","dagFile":"artifacts\\tundra.dag","targets":[]}
{"msg":"enqueueNode","enqueuedNodeAnnotation":"all_tundra_nodes","enqueuedNodeIndex":0}
{"msg":"enqueueNode","enqueuedNodeAnnotation":"WriteResponseFile artifacts/rsp/3559567297350591675.rsp","enqueuedNodeIndex":1,"enqueueingNodeAnnotation":"all_tundra_nodes","enqueueingNodeIndex":0}
{"msg":"enqueueNode","enqueuedNodeAnnotation":"Il2Cpp C:/Users/Nguyen Thuan/Desktop/ex/performance/Test_sprite/test_performance_sprite/Library/Il2cppBuildCache/WebGL/Native/build.bc","enqueuedNodeIndex":2,"enqueueingNodeAnnotation":"all_tundra_nodes","enqueueingNodeIndex":0}
{"msg":"newNode","annotation":"WriteResponseFile artifacts/rsp/3559567297350591675.rsp","index":1}
{"msg":"noderesult","annotation":"WriteResponseFile artifacts/rsp/3559567297350591675.rsp","index":1,"exitcode":0}
{"msg":"newNode","annotation":"Il2Cpp C:/Users/Nguyen Thuan/Desktop/ex/performance/Test_sprite/test_performance_sprite/Library/Il2cppBuildCache/WebGL/Native/build.bc","index":2}
{"msg":"noderesult","annotation":"Il2Cpp C:/Users/Nguyen Thuan/Desktop/ex/performance/Test_sprite/test_performance_sprite/Library/Il2cppBuildCache/WebGL/Native/build.bc","index":2,"exitcode":0}
{"msg":"newNode","annotation":"all_tundra_nodes","index":0}
