[api-updater (non-obsolete-error-filter)] 1/18/2022 12:15:13 AM : Starting C:/Program Files/Unity/Hub/Editor/2020.3.22f1/Editor/Data/Tools/ScriptUpdater/APIUpdater.NonObsoleteApiUpdaterDetector.exe
[api-updater (non-obsolete-error-filter)] 
----------------------------------
jit/startup time      : 11667.5622ms
moved types parse time: 129ms
candidates parse time : 2ms
C# parse time         : 409ms
candidates check time : 72ms
console write time    : 1ms

